Logic/Verilog/LocalBus68040/U111/U111_top_tb.vcd
$date
	Fri Oct 18 13:51:59 2024
$end
$version
	Icarus Verilog
$end
$timescale
	1ps
$end
$scope module U111_TOP_TB $end
$var wire 8 ! D_LL_040 [7:0] $end
$var wire 8 " D_LL_AMIGA [7:0] $end
$var wire 8 # D_LM_040 [7:0] $end
$var wire 8 $ D_LM_AMIGA [7:0] $end
$var wire 8 % D_UM_040 [7:0] $end
$var wire 8 & D_UM_AMIGA [7:0] $end
$var wire 8 ' D_UU_040 [7:0] $end
$var wire 8 ( D_UU_AMIGA [7:0] $end
$var wire 1 ) TSn $end
$var wire 1 * TAn $end
$var wire 2 + A_AMIGA [1:0] $end
$var parameter 32 , DURATION $end
$var reg 2 - A_040 [1:0] $end
$var reg 1 . CLK40 $end
$var reg 1 / CLK80 $end
$var reg 8 0 DLL_040 [7:0] $end
$var reg 8 1 DLL_AMIGA [7:0] $end
$var reg 8 2 DLM_040 [7:0] $end
$var reg 8 3 DLM_AMIGA [7:0] $end
$var reg 8 4 DUM_040 [7:0] $end
$var reg 8 5 DUM_AMIGA [7:0] $end
$var reg 8 6 DUU_040 [7:0] $end
$var reg 8 7 DUU_AMIGA [7:0] $end
$var reg 1 8 PORT $end
$var reg 1 9 RESETn $end
$var reg 1 : RnW $end
$var reg 2 ; SIZ [1:0] $end
$var reg 1 < TACKn $end
$var reg 1 = TS_CPUn $end
$scope module dut $end
$var wire 2 > A_040 [1:0] $end
$var wire 2 ? A_AMIGA [1:0] $end
$var wire 1 @ BGn $end
$var wire 1 A BUFDIR $end
$var wire 1 B BUFENn $end
$var wire 1 . CLK40 $end
$var wire 1 C CLK40A $end
$var wire 1 D CLK40B $end
$var wire 1 E CLK40C $end
$var wire 1 F CLK40_IN $end
$var wire 1 / CLK80 $end
$var wire 1 G CLK80A $end
$var wire 1 H CLK80B $end
$var wire 1 I CLK80C $end
$var wire 1 J CPUBGn $end
$var wire 8 K D_LL_040 [7:0] $end
$var wire 8 L D_LL_AMIGA [7:0] $end
$var wire 8 M D_LM_040 [7:0] $end
$var wire 8 N D_LM_AMIGA [7:0] $end
$var wire 8 O D_UM_040 [7:0] $end
$var wire 8 P D_UM_AMIGA [7:0] $end
$var wire 8 Q D_UU_040 [7:0] $end
$var wire 8 R D_UU_AMIGA [7:0] $end
$var wire 1 S FLIP $end
$var wire 8 T LATCHED0 [7:0] $end
$var wire 8 U LATCHED1 [7:0] $end
$var wire 1 V LW_TRANS $end
$var wire 1 8 PORT $end
$var wire 1 W RAMCLK $end
$var wire 1 9 RESETn $end
$var wire 1 : RnW $end
$var wire 2 X SIZ [1:0] $end
$var wire 1 < TACKn $end
$var wire 1 Y TA_EN $end
$var wire 1 * TAn $end
$var wire 1 = TS_CPUn $end
$var wire 1 Z TS_SMn $end
$var wire 1 ) TSn $end
$var wire 1 [ WORD_LATCH $end
$var wire 1 \ TBIn $end
$var wire 8 ] RD_LATCH1 [7:0] $end
$var wire 8 ^ RD_LATCH0 [7:0] $end
$upscope $end
$upscope $end
$enddefinitions $end
$comment Show the parameter values. $end
$dumpall
b1001110001000 ,
$end
#0
$dumpvars
b11111111 ^
b11111111 ]
1\
1[
1Z
1Y
b0 X
zW
1V
b11111111 U
b11111111 T
0S
bz R
b11111111 Q
bz P
b11111111 O
bz N
bz M
bz L
bz K
zJ
zI
zH
zG
zF
zE
zD
zC
zB
zA
z@
b0 ?
b0 >
1=
1<
b0 ;
1:
09
18
bz 7
bz 6
bz 5
bz 4
bz 3
bz 2
bz 1
bz 0
1/
0.
b0 -
b0 +
1*
1)
bz (
b11111111 '
bz &
b11111111 %
bz $
bz #
bz "
bz !
$end
#6250
0/
#12500
1/
1.
#18750
0/
#25000
1/
0.
#31250
0/
#37500
1/
1.
#43750
0/
#50000
1/
0.
#56250
0/
#62500
1/
1.
#68750
0/
#75000
1/
0.
#81250
0/
#87500
1/
1.
#93750
0/
#100000
1/
0.
19
#106250
0/
#112500
1/
1.
#118750
0/
#125000
1/
0.
#131250
0/
#137500
1/
1.
#143750
0/
#150000
0)
1/
0.
0=
#156250
0/
#162500
1/
1.
#168750
0/
#175000
bz '
bz Q
bz %
bz O
bz ^
bz ]
1)
0[
1/
0.
08
1=
#181250
0/
#187500
1/
1.
#193750
0/
#200000
1/
0.
#206250
0/
#212500
1/
1.
#218750
0/
#225000
b10100011 !
b10100011 K
b10100010 #
b10100010 M
b10100001 %
b10100001 O
b10100000 '
b10100000 Q
b10100001 ]
b10100000 ^
1/
0.
b10100011 "
b10100011 L
b10100011 1
b10100010 $
b10100010 N
b10100010 3
b10100001 &
b10100001 P
b10100001 5
b10100000 (
b10100000 R
b10100000 7
#231250
0/
#237500
1/
1.
#243750
0/
#250000
1/
0.
0*
0<
#256250
0/
#262500
1/
1.
#268750
0/
#275000
bz !
bz K
bz #
bz M
b11111111 %
b11111111 O
b11111111 '
b11111111 Q
b11111111 ]
b11111111 ^
1[
1/
0.
bz "
bz L
bz 1
bz $
bz N
bz 3
bz &
bz P
bz 5
bz (
bz R
bz 7
18
1*
1<
#281250
0/
#287500
1/
1.
#293750
0/
#300000
1/
0.
#306250
0/
#312500
1/
1.
#318750
0/
#325000
bz '
bz Q
bz %
bz O
bz ^
bz ]
0[
0)
0V
1/
0.
b10 ;
b10 X
0=
#331250
0/
#337500
1/
1.
#343750
0/
#350000
1)
1/
0.
1=
#356250
0/
#362500
1/
1.
#368750
0/
#375000
1/
0.
#381250
0/
#387500
1/
1.
#393750
0/
#400000
bx !
bx K
bx #
bx M
b10100001 %
b10100001 O
b10100000 '
b10100000 Q
b10100001 ]
b10100000 ^
1/
0.
bx "
bx L
bx 1
bx $
bx N
bx 3
b10100001 &
b10100001 P
b10100001 5
b10100000 (
b10100000 R
b10100000 7
#406250
0/
#412500
1/
1.
#418750
0/
#425000
1/
0.
#431250
0/
#437500
1/
1.
#443750
0/
#450000
0\
1/
0.
0*
0<
#456250
0/
#462500
1/
1.
#468750
0/
#475000
bz !
bz K
bz #
bz M
bz %
bz O
bz '
bz Q
bz ]
bz ^
1\
1/
0.
bz "
bz L
bz 1
bz $
bz N
bz 3
bz &
bz P
bz 5
bz (
bz R
bz 7
1*
1<
#481250
0/
#487500
1/
1.
#493750
0/
#500000
1/
0.
#506250
0/
#512500
1/
1.
#518750
0/
#525000
1S
0)
1/
0.
b10 +
b10 ?
b10 -
b10 >
0=
#531250
0/
#537500
1/
1.
#543750
0/
#550000
1)
1/
0.
1=
#556250
0/
#562500
1/
1.
#568750
0/
#575000
1/
0.
#581250
0/
#587500
1/
1.
#593750
0/
#600000
b10110001 %
b10110001 O
b10110000 '
b10110000 Q
b10110001 ]
b10110001 !
b10110001 K
b10110000 ^
b10110000 #
b10110000 M
1/
0.
bx "
bx L
bx 1
bx $
bx N
bx 3
b10110001 &
b10110001 P
b10110001 5
b10110000 (
b10110000 R
b10110000 7
#606250
0/
#612500
1/
1.
#618750
0/
#625000
1/
0.
#631250
0/
#637500
1/
1.
#643750
0/
#650000
0\
1/
0.
0*
0<
#656250
0/
#662500
1/
1.
#668750
0/
#675000
bz %
bz O
bz '
bz Q
bz ]
bz !
bz K
bz ^
bz #
bz M
1\
1/
0.
bz "
bz L
bz 1
bz $
bz N
bz 3
bz &
bz P
bz 5
bz (
bz R
bz 7
1*
1<
